newmtl bunny
  Ns 10.0000
  Ni 1.5000
  d 1.0000
  Tr 0.0000
  Tf 1.0000 1.0000 1.0000 
  illum 2
  Ka 0.5000 0.4000 0.0000
  Kd 1.0 1.0 1.00
  Ks 0.0000 0.0000 0.0000
  Ke 0.0000 0.0000 0.0000
  map_Kd bunny.png
